^C:\USERS\MI\DESKTOP\C\◆自学练习◆\37 - 多级指针\37 - 多级指针.CPP
C:\USERS\MI\DESKTOP\C\◆自学练习◆\37 - 多级指针\DEBUG\VC142.PDB
C:\USERS\MI\DESKTOP\C\◆自学练习◆\37 - 多级指针\DEBUG\VC142.IDB
C:\USERS\MI\DESKTOP\C\◆自学练习◆\37 - 多级指针\DEBUG\37 - 多级指针.OBJ
