^C:\USERS\MI\DESKTOP\CPP\139 - 中缀表达式转后缀表达式\DEBUG\139 - 中缀表达式转后缀表达式.OBJ|C:\USERS\MI\DESKTOP\CPP\139 - 中缀表达式转后缀表达式\DEBUG\LINKSTACK.OBJ
C:\USERS\MI\DESKTOP\CPP\139 - 中缀表达式转后缀表达式\DEBUG\139 - 中缀表达式转后缀表达式.EXE
C:\USERS\MI\DESKTOP\CPP\139 - 中缀表达式转后缀表达式\DEBUG\139 - 中缀表达式转后缀表达式.ILK
C:\USERS\MI\DESKTOP\CPP\139 - 中缀表达式转后缀表达式\DEBUG\139 - 中缀表达式转后缀表达式.PDB
