^C:\USERS\MI\DESKTOP\C\◆自学练习◆\48 - 案例_学生成绩_基础\基础.CPP
C:\USERS\MI\DESKTOP\C\◆自学练习◆\48 - 案例_学生成绩_基础\DEBUG\VC142.PDB
C:\USERS\MI\DESKTOP\C\◆自学练习◆\48 - 案例_学生成绩_基础\DEBUG\VC142.IDB
C:\USERS\MI\DESKTOP\C\◆自学练习◆\48 - 案例_学生成绩_基础\DEBUG\基础.OBJ
