^C:\USERS\MI\DESKTOP\C\◆自学练习◆\39 - 指针作为函数返回值\DEBUG\39 - 指针作为函数返回值.OBJ
C:\USERS\MI\DESKTOP\C\◆自学练习◆\39 - 指针作为函数返回值\DEBUG\39 - 指针作为函数返回值.ILK
C:\USERS\MI\DESKTOP\C\◆自学练习◆\39 - 指针作为函数返回值\DEBUG\39 - 指针作为函数返回值.EXE
C:\USERS\MI\DESKTOP\C\◆自学练习◆\39 - 指针作为函数返回值\DEBUG\39 - 指针作为函数返回值.PDB
