^C:\USERS\MI\DESKTOP\C\◆自学练习◆\26 - 空指针和野指针\DEBUG\26 - 空指针和野指针.OBJ
C:\USERS\MI\DESKTOP\C\◆自学练习◆\26 - 空指针和野指针\DEBUG\26 - 空指针和野指针.ILK
C:\USERS\MI\DESKTOP\C\◆自学练习◆\26 - 空指针和野指针\DEBUG\26 - 空指针和野指针.EXE
C:\USERS\MI\DESKTOP\C\◆自学练习◆\26 - 空指针和野指针\DEBUG\26 - 空指针和野指针.PDB
