^C:\USERS\MI\DESKTOP\CPP\28 - 标准IO输入输出流\28-IO输入输出流.CPP
C:\USERS\MI\DESKTOP\CPP\28 - 标准IO输入输出流\DEBUG\VC142.PDB
C:\USERS\MI\DESKTOP\CPP\28 - 标准IO输入输出流\DEBUG\VC142.IDB
C:\USERS\MI\DESKTOP\CPP\28 - 标准IO输入输出流\DEBUG\28-IO输入输出流.OBJ
