^C:\USERS\MI\DESKTOP\C\◆自学练习◆\60 - 动态链表\TESTLINKLIST.CPP
/c /ZI /JMC /nologo /W3 /WX- /diagnostics:column /sdl /Od /Oy- /D _UNICODE /D UNICODE /Gm- /EHsc /RTC1 /MDd /GS /fp:precise /permissive- /Zc:wchar_t /Zc:forScope /Zc:inline /Fo"DEBUG\\" /Fd"DEBUG\VC142.PDB" /Gd /TP /analyze- /FC C:\USERS\MI\DESKTOP\C\◆自学练习◆\60 - 动态链表\TESTLINKLIST.CPP
^C:\USERS\MI\DESKTOP\C\◆自学练习◆\60 - 动态链表\60 - 动态链表.CPP
/c /ZI /JMC /nologo /W3 /WX- /diagnostics:column /sdl /Od /Oy- /D _UNICODE /D UNICODE /Gm- /EHsc /RTC1 /MDd /GS /fp:precise /permissive- /Zc:wchar_t /Zc:forScope /Zc:inline /Fo"DEBUG\\" /Fd"DEBUG\VC142.PDB" /Gd /TP /analyze- /FC C:\USERS\MI\DESKTOP\C\◆自学练习◆\60 - 动态链表\60 - 动态链表.CPP
