^C:\USERS\MI\DESKTOP\C\◆自学练习◆\74 - 整个类做友元类\74 - 整个类做友元类.CPP
C:\USERS\MI\DESKTOP\C\◆自学练习◆\74 - 整个类做友元类\DEBUG\VC142.PDB
C:\USERS\MI\DESKTOP\C\◆自学练习◆\74 - 整个类做友元类\DEBUG\VC142.IDB
C:\USERS\MI\DESKTOP\C\◆自学练习◆\74 - 整个类做友元类\DEBUG\74 - 整个类做友元类.OBJ
