^C:\USERS\MI\DESKTOP\C\◆自学练习◆\74 - 整个类做友元类\DEBUG\74 - 整个类做友元类.OBJ
C:\USERS\MI\DESKTOP\C\◆自学练习◆\74 - 整个类做友元类\DEBUG\74 - 整个类做友元类.ILK
C:\USERS\MI\DESKTOP\C\◆自学练习◆\74 - 整个类做友元类\DEBUG\74 - 整个类做友元类.EXE
C:\USERS\MI\DESKTOP\C\◆自学练习◆\74 - 整个类做友元类\DEBUG\74 - 整个类做友元类.PDB
