^C:\USERS\MI\DESKTOP\C\◆自学练习◆\107 - 类模板做函数参数\107 - 类模板做函数参数.CPP
C:\USERS\MI\DESKTOP\C\◆自学练习◆\107 - 类模板做函数参数\DEBUG\VC142.PDB
C:\USERS\MI\DESKTOP\C\◆自学练习◆\107 - 类模板做函数参数\DEBUG\VC142.IDB
C:\USERS\MI\DESKTOP\C\◆自学练习◆\107 - 类模板做函数参数\DEBUG\107 - 类模板做函数参数.OBJ
