^C:\USERS\MI\DESKTOP\C\◆自学练习◆\11-随机数生成\源.CPP
C:\USERS\MI\DESKTOP\C\◆自学练习◆\11-随机数生成\DEBUG\VC142.PDB
C:\USERS\MI\DESKTOP\C\◆自学练习◆\11-随机数生成\DEBUG\VC142.IDB
C:\USERS\MI\DESKTOP\C\◆自学练习◆\11-随机数生成\DEBUG\源.OBJ
