^C:\USERS\MI\DESKTOP\C\◆自学练习◆\97 - 多态_PK小游戏\DEBUG\97 - 多态_PK小游戏.OBJ|C:\USERS\MI\DESKTOP\C\◆自学练习◆\97 - 多态_PK小游戏\DEBUG\DRAGONSWORD.OBJ|C:\USERS\MI\DESKTOP\C\◆自学练习◆\97 - 多态_PK小游戏\DEBUG\HERO.OBJ|C:\USERS\MI\DESKTOP\C\◆自学练习◆\97 - 多态_PK小游戏\DEBUG\KNIFE.OBJ|C:\USERS\MI\DESKTOP\C\◆自学练习◆\97 - 多态_PK小游戏\DEBUG\MONSTER.OBJ
C:\USERS\MI\DESKTOP\C\◆自学练习◆\97 - 多态_PK小游戏\DEBUG\97 - 多态_PK小游戏.EXE
C:\USERS\MI\DESKTOP\C\◆自学练习◆\97 - 多态_PK小游戏\DEBUG\97 - 多态_PK小游戏.ILK
C:\USERS\MI\DESKTOP\C\◆自学练习◆\97 - 多态_PK小游戏\DEBUG\97 - 多态_PK小游戏.PDB
