^C:\USERS\MI\DESKTOP\C\◆自学练习◆\69 - 成员变量和成员函数分开存储\69 - 成员变量和成员函数分开存储.CPP
C:\USERS\MI\DESKTOP\C\◆自学练习◆\69 - 成员变量和成员函数分开存储\DEBUG\VC142.PDB
C:\USERS\MI\DESKTOP\C\◆自学练习◆\69 - 成员变量和成员函数分开存储\DEBUG\VC142.IDB
C:\USERS\MI\DESKTOP\C\◆自学练习◆\69 - 成员变量和成员函数分开存储\DEBUG\69 - 成员变量和成员函数分开存储.OBJ
