^C:\USERS\MI\DESKTOP\C\◆自学练习◆\66 - 静态成员函数\DEBUG\66 - 静态成员函数.OBJ
C:\USERS\MI\DESKTOP\C\◆自学练习◆\66 - 静态成员函数\DEBUG\66 - 静态成员函数.EXE
C:\USERS\MI\DESKTOP\C\◆自学练习◆\66 - 静态成员函数\DEBUG\66 - 静态成员函数.ILK
C:\USERS\MI\DESKTOP\C\◆自学练习◆\66 - 静态成员函数\DEBUG\66 - 静态成员函数.PDB
