^C:\USERS\MI\DESKTOP\CPP\150 - OOP单向链表功能总结\DEBUG\150 - OOP单向链表功能总结.OBJ|C:\USERS\MI\DESKTOP\CPP\150 - OOP单向链表功能总结\DEBUG\OPERATOR.OBJ
C:\USERS\MI\DESKTOP\CPP\150 - OOP单向链表功能总结\DEBUG\150 - OOP单向链表功能总结.EXE
C:\USERS\MI\DESKTOP\CPP\150 - OOP单向链表功能总结\DEBUG\150 - OOP单向链表功能总结.ILK
C:\USERS\MI\DESKTOP\CPP\150 - OOP单向链表功能总结\DEBUG\150 - OOP单向链表功能总结.PDB
