^C:\USERS\MI\DESKTOP\C\◆自学练习◆\41 - 指针和字符串\DEBUG\指针和字符串.OBJ
C:\USERS\MI\DESKTOP\C\◆自学练习◆\41 - 指针和字符串\DEBUG\41 - 指针和字符串.EXE
C:\USERS\MI\DESKTOP\C\◆自学练习◆\41 - 指针和字符串\DEBUG\41 - 指针和字符串.ILK
C:\USERS\MI\DESKTOP\C\◆自学练习◆\41 - 指针和字符串\DEBUG\41 - 指针和字符串.PDB
