^C:\USERS\MI\DESKTOP\C\◆自学练习◆\60 - 动态链表_C\TEST.C|C:\USERS\MI\DESKTOP\C\◆自学练习◆\60 - 动态链表_C\源.C
C:\USERS\MI\DESKTOP\C\◆自学练习◆\60 - 动态链表_C\DEBUG\VC142.PDB
C:\USERS\MI\DESKTOP\C\◆自学练习◆\60 - 动态链表_C\DEBUG\VC142.IDB
C:\USERS\MI\DESKTOP\C\◆自学练习◆\60 - 动态链表_C\DEBUG\源.OBJ
^C:\USERS\MI\DESKTOP\C\◆自学练习◆\60 - 动态链表_C\源.C
C:\USERS\MI\DESKTOP\C\◆自学练习◆\60 - 动态链表_C\DEBUG\源.OBJ
^C:\USERS\MI\DESKTOP\C\◆自学练习◆\60 - 动态链表_C\TEST.C
C:\USERS\MI\DESKTOP\C\◆自学练习◆\60 - 动态链表_C\DEBUG\VC142.PDB
C:\USERS\MI\DESKTOP\C\◆自学练习◆\60 - 动态链表_C\DEBUG\VC142.IDB
C:\USERS\MI\DESKTOP\C\◆自学练习◆\60 - 动态链表_C\DEBUG\TEST.OBJ
