^C:\USERS\MI\DESKTOP\C\◆自学练习◆\101 - 函数模板的基本使用\101 - 函数模板的基本使用.CPP
C:\USERS\MI\DESKTOP\C\◆自学练习◆\101 - 函数模板的基本使用\DEBUG\VC142.PDB
C:\USERS\MI\DESKTOP\C\◆自学练习◆\101 - 函数模板的基本使用\DEBUG\VC142.IDB
C:\USERS\MI\DESKTOP\C\◆自学练习◆\101 - 函数模板的基本使用\DEBUG\101 - 函数模板的基本使用.OBJ
