^C:\USERS\MI\DESKTOP\C\08-FOR-水仙花数\DEBUG\源.OBJ
C:\USERS\MI\DESKTOP\C\08-FOR-水仙花数\DEBUG\07-FOR水仙花数.EXE
C:\USERS\MI\DESKTOP\C\08-FOR-水仙花数\DEBUG\07-FOR水仙花数.ILK
C:\USERS\MI\DESKTOP\C\08-FOR-水仙花数\DEBUG\07-FOR水仙花数.PDB
